%YAML 1.1
%TAG !u! tag:unity3d.com,2011:
--- !u!74 &7400000
AnimationClip:
  m_ObjectHideFlags: 0
  m_CorrespondingSourceObject: {fileID: 0}
  m_PrefabInstance: {fileID: 0}
  m_PrefabAsset: {fileID: 0}
  m_Name: EvelynNoClothesSurprised
  serializedVersion: 6
  m_Legacy: 0
  m_Compressed: 0
  m_UseHighQualityCurve: 1
  m_RotationCurves: []
  m_CompressedRotationCurves: []
  m_EulerCurves: []
  m_PositionCurves: []
  m_ScaleCurves: []
  m_FloatCurves:
  - curve:
      serializedVersion: 2
      m_Curve:
      - serializedVersion: 3
        time: 0
        value: 1
        inSlope: Infinity
        outSlope: Infinity
        tangentMode: 103
        weightedMode: 0
        inWeight: 0
        outWeight: 0
      m_PreInfinity: 2
      m_PostInfinity: 2
      m_RotationOrder: 4
    attribute: m_Enabled
    path: 
    classID: 114
    script: {fileID: 11500000, guid: fe87c0e1cc204ed48ad3b37840f39efc, type: 3}
  - curve:
      serializedVersion: 2
      m_Curve:
      - serializedVersion: 3
        time: 0
        value: 0
        inSlope: 0
        outSlope: 0
        tangentMode: 136
        weightedMode: 0
        inWeight: 0.33333334
        outWeight: 0.33333334
      m_PreInfinity: 2
      m_PostInfinity: 2
      m_RotationOrder: 4
    attribute: m_Color.a
    path: 
    classID: 114
    script: {fileID: 11500000, guid: fe87c0e1cc204ed48ad3b37840f39efc, type: 3}
  m_PPtrCurves:
  - curve:
    - time: 0
      value: {fileID: 21300000, guid: f81b3f8c6f4332e47bae02291a9d1cf1, type: 3}
    - time: 0.16666667
      value: {fileID: 21300000, guid: 850e46d0ee183af4b9a719ccd5082d9e, type: 3}
    - time: 0.33333334
      value: {fileID: 21300000, guid: 6872918069421964dbb1b2527d1f0a33, type: 3}
    - time: 0.5
      value: {fileID: 21300000, guid: 850e46d0ee183af4b9a719ccd5082d9e, type: 3}
    - time: 0.6666667
      value: {fileID: 21300000, guid: f81b3f8c6f4332e47bae02291a9d1cf1, type: 3}
    - time: 0.8333333
      value: {fileID: 21300000, guid: 850e46d0ee183af4b9a719ccd5082d9e, type: 3}
    - time: 1
      value: {fileID: 21300000, guid: 6872918069421964dbb1b2527d1f0a33, type: 3}
    - time: 1.1666666
      value: {fileID: 21300000, guid: 850e46d0ee183af4b9a719ccd5082d9e, type: 3}
    - time: 1.3333334
      value: {fileID: 21300000, guid: 172e1c08eb1ecf745ba25f33659224af, type: 3}
    - time: 1.5
      value: {fileID: 21300000, guid: f81b3f8c6f4332e47bae02291a9d1cf1, type: 3}
    - time: 1.6666666
      value: {fileID: 21300000, guid: 850e46d0ee183af4b9a719ccd5082d9e, type: 3}
    - time: 1.8333334
      value: {fileID: 21300000, guid: 6872918069421964dbb1b2527d1f0a33, type: 3}
    - time: 2
      value: {fileID: 21300000, guid: 850e46d0ee183af4b9a719ccd5082d9e, type: 3}
    - time: 2.1666667
      value: {fileID: 21300000, guid: f81b3f8c6f4332e47bae02291a9d1cf1, type: 3}
    attribute: m_Sprite
    path: 
    classID: 114
    script: {fileID: 11500000, guid: fe87c0e1cc204ed48ad3b37840f39efc, type: 3}
  m_SampleRate: 60
  m_WrapMode: 0
  m_Bounds:
    m_Center: {x: 0, y: 0, z: 0}
    m_Extent: {x: 0, y: 0, z: 0}
  m_ClipBindingConstant:
    genericBindings:
    - serializedVersion: 2
      path: 0
      attribute: 3305885265
      script: {fileID: 11500000, guid: fe87c0e1cc204ed48ad3b37840f39efc, type: 3}
      typeID: 114
      customType: 24
      isPPtrCurve: 0
    - serializedVersion: 2
      path: 0
      attribute: 2015549526
      script: {fileID: 11500000, guid: fe87c0e1cc204ed48ad3b37840f39efc, type: 3}
      typeID: 114
      customType: 0
      isPPtrCurve: 1
    - serializedVersion: 2
      path: 0
      attribute: 304273561
      script: {fileID: 11500000, guid: fe87c0e1cc204ed48ad3b37840f39efc, type: 3}
      typeID: 114
      customType: 0
      isPPtrCurve: 0
    pptrCurveMapping:
    - {fileID: 21300000, guid: f81b3f8c6f4332e47bae02291a9d1cf1, type: 3}
    - {fileID: 21300000, guid: 850e46d0ee183af4b9a719ccd5082d9e, type: 3}
    - {fileID: 21300000, guid: 6872918069421964dbb1b2527d1f0a33, type: 3}
    - {fileID: 21300000, guid: 850e46d0ee183af4b9a719ccd5082d9e, type: 3}
    - {fileID: 21300000, guid: f81b3f8c6f4332e47bae02291a9d1cf1, type: 3}
    - {fileID: 21300000, guid: 850e46d0ee183af4b9a719ccd5082d9e, type: 3}
    - {fileID: 21300000, guid: 6872918069421964dbb1b2527d1f0a33, type: 3}
    - {fileID: 21300000, guid: 850e46d0ee183af4b9a719ccd5082d9e, type: 3}
    - {fileID: 21300000, guid: 172e1c08eb1ecf745ba25f33659224af, type: 3}
    - {fileID: 21300000, guid: f81b3f8c6f4332e47bae02291a9d1cf1, type: 3}
    - {fileID: 21300000, guid: 850e46d0ee183af4b9a719ccd5082d9e, type: 3}
    - {fileID: 21300000, guid: 6872918069421964dbb1b2527d1f0a33, type: 3}
    - {fileID: 21300000, guid: 850e46d0ee183af4b9a719ccd5082d9e, type: 3}
    - {fileID: 21300000, guid: f81b3f8c6f4332e47bae02291a9d1cf1, type: 3}
  m_AnimationClipSettings:
    serializedVersion: 2
    m_AdditiveReferencePoseClip: {fileID: 0}
    m_AdditiveReferencePoseTime: 0
    m_StartTime: 0
    m_StopTime: 2.1833334
    m_OrientationOffsetY: 0
    m_Level: 0
    m_CycleOffset: 0
    m_HasAdditiveReferencePose: 0
    m_LoopTime: 0
    m_LoopBlend: 0
    m_LoopBlendOrientation: 0
    m_LoopBlendPositionY: 0
    m_LoopBlendPositionXZ: 0
    m_KeepOriginalOrientation: 0
    m_KeepOriginalPositionY: 1
    m_KeepOriginalPositionXZ: 0
    m_HeightFromFeet: 0
    m_Mirror: 0
  m_EditorCurves:
  - curve:
      serializedVersion: 2
      m_Curve:
      - serializedVersion: 3
        time: 0
        value: 1
        inSlope: Infinity
        outSlope: Infinity
        tangentMode: 103
        weightedMode: 0
        inWeight: 0
        outWeight: 0
      m_PreInfinity: 2
      m_PostInfinity: 2
      m_RotationOrder: 4
    attribute: m_Enabled
    path: 
    classID: 114
    script: {fileID: 11500000, guid: fe87c0e1cc204ed48ad3b37840f39efc, type: 3}
  - curve:
      serializedVersion: 2
      m_Curve:
      - serializedVersion: 3
        time: 0
        value: 0
        inSlope: 0
        outSlope: 0
        tangentMode: 136
        weightedMode: 0
        inWeight: 0.33333334
        outWeight: 0.33333334
      m_PreInfinity: 2
      m_PostInfinity: 2
      m_RotationOrder: 4
    attribute: m_Color.a
    path: 
    classID: 114
    script: {fileID: 11500000, guid: fe87c0e1cc204ed48ad3b37840f39efc, type: 3}
  m_EulerEditorCurves: []
  m_HasGenericRootTransform: 0
  m_HasMotionFloatCurves: 0
  m_Events: []
