%YAML 1.1
%TAG !u! tag:unity3d.com,2011:
--- !u!21 &2100000
Material:
  serializedVersion: 6
  m_ObjectHideFlags: 0
  m_CorrespondingSourceObject: {fileID: 0}
  m_PrefabInstance: {fileID: 0}
  m_PrefabAsset: {fileID: 0}
  m_Name: SbireOutlineMaterial
  m_Shader: {fileID: -6465566751694194690, guid: 7516ae7008672d54ebff51fde226d295, type: 3}
  m_ShaderKeywords: ETC1_EXTERNAL_ALPHA
  m_LightmapFlags: 4
  m_EnableInstancingVariants: 0
  m_DoubleSidedGI: 0
  m_CustomRenderQueue: -1
  stringTagMap: {}
  disabledShaderPasses: []
  m_SavedProperties:
    serializedVersion: 3
    m_TexEnvs:
    - _MainTex:
        m_Texture: {fileID: 2800000, guid: ba4325cdc494b4f4f9da7be606e8dab3, type: 3}
        m_Scale: {x: 1, y: 1}
        m_Offset: {x: 0, y: 0}
    - _Texture2DAsset_645E1759_Out_0:
        m_Texture: {fileID: 2800000, guid: ba4325cdc494b4f4f9da7be606e8dab3, type: 3}
        m_Scale: {x: 1, y: 1}
        m_Offset: {x: 0, y: 0}
    - _Texture2DAsset_A82EA2AD_Out_0:
        m_Texture: {fileID: 2800000, guid: ba4325cdc494b4f4f9da7be606e8dab3, type: 3}
        m_Scale: {x: 1, y: 1}
        m_Offset: {x: 0, y: 0}
    - _Texture2DAsset_E233CE5B_Out_0:
        m_Texture: {fileID: 2800000, guid: ba4325cdc494b4f4f9da7be606e8dab3, type: 3}
        m_Scale: {x: 1, y: 1}
        m_Offset: {x: 0, y: 0}
    m_Floats: []
    m_Colors:
    - _Color: {r: 0.7490196, g: 0.02352941, b: 0.02352941, a: 1}
  m_BuildTextureStacks: []
